{
	"id": "df5fc6bb-7507-4632-842a-d0c56c5a6662",
	"name": "Inventaris Environment",
	"values": [
		{
			"key": "host",
			"value": "http://localhot:5000",
			"enabled": true
		},
		{
			"key": "access_token",
			"value": "",
			"enabled": true
		}
	],
	"_postman_variable_scope": "environment",
	"_postman_exported_at": "2022-10-29T09:06:56.149Z",
	"_postman_exported_using": "Postman/8.11.1"
}